{ 
    "UseInMemoryRepository" : false,
    "MySQLServer" : "tcp(127.0.0.1:3306)",
    "MySQLDB" : "gorestservice",
    "MySQLUser" : "root",
    "MySQLPasswd" : "",
    "MySQLDBParams" : "?parseTime=true"
}